#FIG 3.2
Portrait
Center
Inches
Letter 
100.00
Single
0
1200 2
1 3 0 2 0 7 0 0 20 0.000 1 0.0000 1200 1200 300 300 1200 1200 1500 1200
1 3 0 2 -1 7 1 0 20 0.000 1 0.0000 1200 3600 300 300 1200 3600 1500 3600
1 3 0 2 0 7 1 0 20 0.000 1 0.0000 3600 3600 300 300 3600 3600 3900 3600
1 3 0 2 0 7 0 0 20 0.000 1 0.0000 3600 1200 300 300 3600 1200 3900 1200
2 1 0 2 0 7 5 0 -1 0.000 0 0 7 0 0 2
	 3600 1200 1200 3600
2 2 0 2 0 7 5 0 -1 0.000 0 0 7 0 0 5
	 1200 1200 3600 1200 3600 3600 1200 3600 1200 1200
4 1 -1 0 0 3 20 0.0000 2 150 150 2400 975 a\001
4 1 -1 0 0 3 20 0.0000 2 210 150 900 2475 b\001
4 1 -1 0 0 3 20 0.0000 2 150 135 2250 2325 c\001
4 1 -1 0 0 3 20 0.0000 2 210 150 3825 2475 d\001
4 1 -1 0 0 3 20 0.0000 2 150 135 2400 3975 e\001
4 1 0 0 0 0 24 0.0000 4 240 180 1200 3735 3\001
4 1 0 0 0 0 24 0.0000 4 240 180 3585 3720 4\001
4 1 0 0 0 0 24 0.0000 4 240 180 3615 1320 2\001
4 1 0 0 0 0 24 0.0000 4 240 180 1200 1335 1\001
