#FIG 3.2
Portrait
Center
Inches
Letter 
40.00
Single
0
1200 2
6 525 525 1950 1950
1 3 0 2 -1 7 0 0 20 0.000 1 0.0000 602 602 75 75 602 602 602 677
1 3 0 2 -1 7 0 0 20 0.000 1 0.0000 1802 602 75 75 1802 602 1802 677
1 3 0 2 -1 7 0 0 20 0.000 1 0.0000 1802 1802 75 75 1802 1802 1802 1877
1 3 0 2 -1 7 0 0 20 0.000 1 0.0000 602 1802 75 75 602 1802 602 1877
2 1 0 2 -1 7 10 0 -1 0.000 0 0 -1 0 0 3
	 601 601 601 1801 1801 1801
2 1 0 2 -1 7 10 0 -1 0.000 0 0 -1 0 0 2
	 1801 601 601 1801
-6
6 10125 525 11550 1950
1 3 0 2 -1 7 0 0 20 0.000 1 0.0000 10202 602 75 75 10202 602 10202 677
1 3 0 2 -1 7 0 0 20 0.000 1 0.0000 11402 602 75 75 11402 602 11402 677
1 3 0 2 -1 7 0 0 20 0.000 1 0.0000 11402 1802 75 75 11402 1802 11402 1877
1 3 0 2 -1 7 0 0 20 0.000 1 0.0000 10202 1802 75 75 10202 1802 10202 1877
2 1 0 2 -1 7 10 0 -1 0.000 0 0 -1 0 0 4
	 10201 601 11401 601 10201 1801 11401 1801
-6
6 10125 10125 11550 11625
1 3 0 2 -1 7 0 0 20 0.000 1 0.0000 10202 10202 75 75 10202 10202 10202 10277
1 3 0 2 -1 7 0 0 20 0.000 1 0.0000 11402 10202 75 75 11402 10202 11402 10277
1 3 0 2 -1 7 0 0 20 0.000 1 0.0000 10202 11402 75 75 10202 11402 10202 11477
1 3 0 2 -1 7 0 0 20 0.000 1 0.0000 11401 11476 75 75 11401 11476 11401 11551
2 1 0 2 -1 7 10 0 -1 0.000 0 0 -1 0 0 2
	 11401 10201 10201 11401
2 1 0 2 -1 7 10 0 -1 0.000 0 0 -1 0 0 3
	 10201 10201 11401 10201 11401 11401
-6
6 2325 5325 3825 6825
6 2326 5326 3751 6751
1 3 0 2 -1 7 0 0 20 0.000 1 0.0000 2402 5402 75 75 2402 5402 2402 5477
1 3 0 2 -1 7 0 0 20 0.000 1 0.0000 2402 6602 75 75 2402 6602 2402 6677
1 3 0 2 -1 7 0 0 20 0.000 1 0.0000 3602 6602 75 75 3602 6602 3602 6677
-6
2 1 0 2 -1 7 10 0 -1 0.000 0 0 -1 0 0 4
	 2401 5401 2401 6601 3601 6601 3601 5401
-6
6 5325 8325 6750 9750
1 3 0 2 -1 7 0 0 20 0.000 1 0.0000 5402 8402 75 75 5402 8402 5402 8477
1 3 0 2 -1 7 0 0 20 0.000 1 0.0000 6602 8402 75 75 6602 8402 6602 8477
1 3 0 2 -1 7 0 0 20 0.000 1 0.0000 6602 9602 75 75 6602 9602 6602 9677
1 3 0 2 -1 7 0 0 20 0.000 1 0.0000 5402 9602 75 75 5402 9602 5402 9677
2 1 0 2 -1 7 10 0 -1 0.000 0 0 -1 0 0 4
	 5401 9601 5401 8401 6601 8401 6601 9601
-6
6 5325 2325 6750 3750
1 3 0 2 -1 7 0 0 20 0.000 1 0.0000 5402 2402 75 75 5402 2402 5402 2477
1 3 0 2 -1 7 0 0 20 0.000 1 0.0000 6602 2402 75 75 6602 2402 6602 2477
1 3 0 2 -1 7 0 0 20 0.000 1 0.0000 6602 3602 75 75 6602 3602 6602 3677
1 3 0 2 -1 7 0 0 20 0.000 1 0.0000 5402 3602 75 75 5402 3602 5402 3677
2 1 0 2 -1 7 10 0 -1 0.000 0 0 -1 0 0 4
	 6601 2401 5401 2401 5401 3601 6601 3601
-6
6 8325 5325 9750 6750
1 3 0 2 -1 7 0 0 20 0.000 1 0.0000 8402 5402 75 75 8402 5402 8402 5477
1 3 0 2 -1 7 0 0 20 0.000 1 0.0000 9602 5402 75 75 9602 5402 9602 5477
1 3 0 2 -1 7 0 0 20 0.000 1 0.0000 8402 6602 75 75 8402 6602 8402 6677
1 3 0 2 -1 7 0 0 20 0.000 1 0.0000 9601 6601 75 75 9601 6601 9601 6676
2 1 0 2 -1 7 10 0 -1 0.000 0 0 -1 0 0 4
	 8401 5401 9601 5401 9601 6601 8401 6601
-6
6 525 10125 1950 11550
1 3 0 2 -1 7 0 0 20 0.000 1 0.0000 602 10202 75 75 602 10202 602 10277
1 3 0 2 -1 7 0 0 20 0.000 1 0.0000 1802 10202 75 75 1802 10202 1802 10277
1 3 0 2 -1 7 0 0 20 0.000 1 0.0000 1802 11402 75 75 1802 11402 1802 11477
1 3 0 2 -1 7 0 0 20 0.000 1 0.0000 602 11402 75 75 602 11402 602 11477
2 1 0 2 -1 7 10 0 -1 0.000 0 0 -1 0 0 4
	 601 10201 601 11401 1801 10201 1801 11401
-6
1 3 0 2 -1 7 0 0 20 0.000 1 0.0000 3600 5400 75 75 3600 5400 3600 5475
2 1 0 10 2 7 0 0 -1 0.000 0 0 7 0 0 2
	 9000 6900 10200 9900
2 1 0 10 2 7 0 0 -1 0.000 0 0 7 0 0 2
	 10200 2100 9000 5100
2 1 0 10 2 7 0 0 -1 0.000 0 0 7 0 0 2
	 2100 1200 9900 1200
2 1 0 10 2 7 0 0 -1 0.000 0 0 7 0 0 2
	 2100 1800 5100 3000
2 1 0 10 2 7 0 0 -1 0.000 0 0 7 0 0 2
	 1800 2100 3000 5100
2 1 0 10 2 7 0 0 -1 0.000 0 0 7 0 0 2
	 5100 3900 3900 5100
2 1 0 10 2 7 0 0 -1 0.000 0 0 7 0 0 2
	 3900 6900 5100 8100
2 1 0 10 2 7 0 0 -1 0.000 0 0 7 0 0 2
	 5100 9000 2100 10200
2 1 0 10 2 7 0 0 -1 0.000 0 0 7 0 0 2
	 6000 3900 6000 8100
2 1 0 10 2 7 0 0 -1 0.000 0 0 7 0 0 2
	 8100 6900 6900 8100
2 1 0 10 2 7 0 0 -1 0.000 0 0 7 0 0 2
	 2100 10800 9900 10800
2 1 0 10 25 7 0 0 -1 0.000 0 0 7 0 0 2
	 6900 9000 9900 10200
2 1 0 10 25 7 0 0 -1 0.000 0 0 7 0 0 2
	 10800 2100 10800 9900
2 1 0 10 25 7 0 0 -1 0.000 0 0 7 0 0 2
	 9825 1800 6900 3000
2 1 0 10 25 7 0 0 -1 0.000 0 0 7 0 0 2
	 6900 3900 8100 5100
2 1 0 10 25 7 0 0 -1 0.000 0 0 7 0 0 2
	 3900 6000 8100 6000
2 1 0 10 25 7 0 0 -1 0.000 0 0 7 0 0 2
	 3000 6900 1800 9900
2 1 0 10 25 7 0 0 -1 0.000 0 0 7 0 0 2
	 1200 2100 1200 9900
